…
The output contains supplementary data as attributes.

names(attributes(results))

## [1] "class"     "row.names" "names"     "Supp1_mmi" "Supp1_OE"  "Supp2_OE"

attr(results, 'Supp1_mmi')

## # A tibble: 96 x 4
##       taxa            SampleID                  Metric      Value
##      <chr>               <chr>                   <chr>      <dbl>
##  1 diatoms 000CAT148_8/10/10_1       prop.ind.most.tol 0.04545455
##  2 diatoms  102PS0139_8/9/10_1       prop.ind.most.tol 0.13333333
##  3 diatoms 105DLCDCC_5/19/09_1       prop.ind.most.tol 0.06666667
##  4 diatoms 105DLCDCC_6/23/09_1       prop.ind.most.tol 0.10526316
##  5 diatoms 000CAT148_8/10/10_1 prop.ind.most.tol_score 0.89017919
##  6 diatoms  102PS0139_8/9/10_1 prop.ind.most.tol_score 0.71008483
##  7 diatoms 105DLCDCC_5/19/09_1 prop.ind.most.tol_score 0.84670814
##  8 diatoms 105DLCDCC_6/23/09_1 prop.ind.most.tol_score 0.76761043
##  9 diatoms 000CAT148_8/10/10_1           prop.spp.BCG3 0.50000000
## 10 diatoms  102PS0139_8/9/10_1           prop.spp.BCG3 0.46666667
## # ... with 86 more rows
