Check input taxonomy and site data — chkinp • ASCI
…
Additional required columns for the station data: StationCode, CondQR50, SITE_ELEV, TEMP_00_09, KFCT_AVE, AtmCa, PPT_00_09, MAX_ELEV

No missing data in additional required columns for stationdata

    See also

    calcgis

    Examples

# all checks passed, data returned with SampleID
chkinp(demo_algae_tax, demo_station)
#> $taxa
#> # A tibble: 213 x 8
#>    SampleID StationCode SampleDate          Replicate SampleTypeCode BAResult
#>    <chr>    <chr>       <dttm>                  <dbl> <chr>             <int>
#>  1 909M249… 909M24937   2016-06-22 00:00:00         1 Macroalgae           NA
#>  2 909M249… 909M24937   2016-06-22 00:00:00         1 Epiphyte             15
#>  3 909M249… 909M24937   2016-06-22 00:00:00         1 Epiphyte             83
#>  4 909M249… 909M24937   2016-06-22 00:00:00         1 Epiphyte              2
#>  5 909M249… 909M24937   2016-06-22 00:00:00         1 Integrated            5
#>  6 909M249… 909M24937   2016-06-22 00:00:00         1 Integrated           53
#>  7 909M249… 909M24937   2016-06-22 00:00:00         1 Integrated            4
#>  8 909M249… 909M24937   2016-06-22 00:00:00         1 Integrated            8
#>  9 909M249… 909M24937   2016-06-22 00:00:00         1 Integrated            6
#> 10 909M249… 909M24937   2016-06-22 00:00:00         1 Integrated            9
#> # … with 203 more rows, and 2 more variables: Result <dbl>, FinalID <chr>
…
